…
``` r
#Ride length by month

bikeshare_df2 %>%
  group_by(member_casual, month) %>%
  summarise(ride_total = n(), average_ride_length = mean(ride_length)) %>%
  arrange(member_casual, month)
```

    ## `summarise()` has grouped output by 'member_casual'. You can override using the
    ## `.groups` argument.

    ## # A tibble: 22 x 4
    ## # Groups:   member_casual [2]
    ##    member_casual month     ride_total average_ride_length
    ##    <chr>         <ord>          <int> <drtn>             
    ##  1 casual        July          311649 25.09502 mins      
    ##  2 casual        August        270074 23.28570 mins      
    ##  3 casual        September     220905 21.80479 mins      
    ##  4 casual        October       151312 20.46945 mins      
    ##  5 casual        November       73533 17.24673 mins      
    ##  6 casual        December       31502 14.84185 mins      
    ##  7 casual        January        29618 14.88039 mins      
    ##  8 casual        March          46786 16.72132 mins      
    ##  9 casual        April         110526 22.62311 mins      
    ## 10 casual        May           177025 24.52642 mins      
    ## # ... with 12 more rows
…
``` r
#start stations
bikeshare_df2 %>%
  group_by(member_casual, start_station_name) %>%
  summarise(ride_total = n(), average_ride_length = mean(ride_length)) %>%
  arrange(member_casual, start_station_name) %>%
  arrange(desc(ride_total))
```

    ## `summarise()` has grouped output by 'member_casual'. You can override using the
    ## `.groups` argument.

    ## # A tibble: 3,046 x 4
    ## # Groups:   member_casual [2]
    ##    member_casual start_station_name                 ride_total average_ride_le~1
    ##    <chr>         <chr>                                   <int> <drtn>           
    ##  1 casual        Streeter Dr & Grand Ave                 49243 35.187564 mins   
    ##  2 casual        DuSable Lake Shore Dr & Monroe St       28709 36.088565 mins   
    ##  3 member        Kingsbury St & Kinzie St                22412  8.875235 mins   
    ##  4 casual        Michigan Ave & Oak St                   22176 35.907370 mins   
    ##  5 casual        Millennium Park                         21625 38.505604 mins   
    ##  6 member        Clark St & Elm St                       20725 11.538852 mins   
    ##  7 casual        DuSable Lake Shore Dr & North Blvd      20198 28.337774 mins   
    ##  8 member        Clinton St & Washington Blvd            19774 10.737286 mins   
    ##  9 member        Wells St & Concord Ln                   18881 11.138013 mins   
    ## 10 member        Loomis St & Lexington St                18596  8.881304 mins   
    ## # ... with 3,036 more rows, and abbreviated variable name
    ## #   1: average_ride_length

``` r
bikeshare_df2 %>%
  group_by(member_casual, end_station_name) %>%
  summarise(ride_total = n(), average_ride_length = mean(ride_length)) %>%
  arrange(member_casual, end_station_name) %>%
  arrange(desc(ride_total))
```

    ## `summarise()` has grouped output by 'member_casual'. You can override using the
    ## `.groups` argument.

    ## # A tibble: 3,070 x 4
    ## # Groups:   member_casual [2]
    ##    member_casual end_station_name                   ride_total average_ride_le~1
    ##    <chr>         <chr>                                   <int> <drtn>           
    ##  1 casual        Streeter Dr & Grand Ave                 52705 36.609925 mins   
    ##  2 casual        DuSable Lake Shore Dr & Monroe St       26699 36.412276 mins   
    ##  3 casual        Michigan Ave & Oak St                   23703 36.012659 mins   
    ##  4 casual        Millennium Park                         23603 36.225851 mins   
    ##  5 casual        DuSable Lake Shore Dr & North Blvd      23028 30.099354 mins   
    ##  6 member        Kingsbury St & Kinzie St                22340  8.504461 mins   
    ##  7 member        Clark St & Elm St                       20880 10.818159 mins   
    ##  8 member        Clinton St & Washington Blvd            20627  8.797006 mins   
    ##  9 member        Wells St & Concord Ln                   19782 11.132707 mins   
    ## 10 member        Loomis St & Lexington St                18907  9.511625 mins   
    ## # ... with 3,060 more rows, and abbreviated variable name
    ## #   1: average_ride_length
…
